intrusion_detection_system_evasion_techniques	classification (relatedTo)	intrusion_protection_system	/wiki/Intrusion_Protection_System:TOC 
prototype_theory	theorem/theory (relatedTo)	concept	/wiki/Concept:TOC 
file_verification	applicationOf	cryptographic_hash_function	/wiki/Cryptographic_hash_function:TOC 
comparison_of_olap_servers	system (relatedTo)	online_analytical_processing	/wiki/Online_analytical_processing:TOC 
user_interface	designSpecsFor	human%e2%80%93computer_interaction	/wiki/Human%E2%80%93computer_interaction:TOC 
online_machine_learning	problemIn	streaming_algorithm	/wiki/Streaming_algorithm:TOC 
semimodular_lattice	properties (relatedTo)	lattice	/wiki/Lattice_(order):TOC 
harmonic_analysis	applicationOf	group_theory	/wiki/Group_theory:TOC 
merkledamgard_construction	applicationOf	cryptographic_hash_function	/wiki/Cryptographic_hash_function:TOC 
syntax_(logic)	s in logic (relatedTo)	theorem	/wiki/Theorem:TOC 
statistical_syllogism	types(relatedTo)	inductive_inference	/wiki/Inductive_inference:TOC 
internet_key_exchange	methodIn	extensible_authentication_protocol	/wiki/Extensible_Authentication_Protocol:TOC 
xml_namespace	system (relatedTo)	namespace	/wiki/Namespace:TOC 
	problemIn	control_reconfiguration	/wiki/Control_reconfiguration:TOC 
linear_a_(unicode_block)	theorem/theory (relatedTo)	linear_a	/wiki/Linear_A:TOC 
flight_simulation	exampleOf	simulation	/wiki/Simulation:TOC 
function_type	other types(relatedTo)	data_type	/wiki/Data_type:TOC 
biomedical_text_mining	applicationOf	text_analytic	/wiki/Text_analytics:TOC 
user_interface	designSpecsFor	computer-human_interaction	/wiki/Computer-human_interaction:TOC 
seasonality	methodIn	forecasting	/wiki/Forecasting:TOC 
wire__forms_of_wire	properties (relatedTo)	copper_wire_and_cable	/wiki/Copper_wire_and_cable:TOC 
representation_theory	branches of (relatedTo)	group_theory	/wiki/Group_theory:TOC 
brain_simulation	techniqueIn	whole_brain_emulation	/wiki/Whole_brain_emulation:TOC 
extended_finite_element_method	various types of finite element methods(relatedTo)	finite_element_analysis	/wiki/Finite_element_analysis:TOC 
revenue_equivalence	foundationOf	mechanism_design	/wiki/Mechanism_design:TOC 
history_of_operating_systems	types of s(relatedTo)	operating_system	/wiki/Operating_system:TOC 
affine_scaling	algorithmFor	linear_programming	/wiki/Linear_programming:TOC 
glossary_of_nautical_terms	typeOf	heeling	/wiki/Heeling_(sailing):TOC 
brain_simulation	techniqueIn	mind_uploading	/wiki/Mind_uploading:TOC 
inverse_transform_sampling	applicationOf	uniform_distribution	/wiki/Uniform_distribution_(continuous):TOC 
robotic_sensing	componentIn	robotic	/wiki/Robotics:TOC 
data_analysis	applicationOf	data_processing	/wiki/Data_processing:TOC 
fixed-point_combinator	encoding datatypes(relatedTo)	lambda_calculus	/wiki/Lambda_calculus:TOC 
existence_of_god	applicationOf	occam%27s_razor	/wiki/Occam%27s_razor:TOC 
logic_family	designSpecsFor	digital_electronic	/wiki/Digital_electronics:TOC 
cosmic_inflation	applicationOf	anthropic_principle	/wiki/Anthropic_principle:TOC 
confidence_region	properties (relatedTo)	multivariate_normal_distribution	/wiki/Multivariate_normal_distribution:TOC 
robot_locomotion	componentIn	robotic	/wiki/Robotics:TOC 
petersongorensteinzierler_algorithm	applicationOf	reed%e2%80%93solomon_error_correction	/wiki/Reed%E2%80%93Solomon_error_correction:TOC 
hierarchical_clustering	algorithmFor	data_clustering	/wiki/Data_clustering:TOC 
artificial_gene_synthesis	research (relatedTo)	synthetic_life	/wiki/Synthetic_life:TOC 
sequent_calculus	system (relatedTo)	boolean_logic	/wiki/Boolean_logic:TOC 
decision_tree_learning	techniqueIn	predictive_analytic	/wiki/Predictive_analytics:TOC 
dry_toilet	typeOf	sanitation	/wiki/Sanitation:TOC 
454_life_sciences__technology	methodIn	dna_sequencing	/wiki/DNA_sequencing:TOC 
identity_theft	methodIn	internet_vigilantism	/wiki/Internet_vigilantism:TOC 
programming_language_implementation	designSpecsFor	programming_language	/wiki/Programming_language:TOC 
word_sense_induction	methodIn	word-sense_disambiguation	/wiki/Word-sense_disambiguation:TOC 
german_tank_problem	properties (relatedTo)	maximum_likelihood	/wiki/Maximum_likelihood:TOC 
user_interface	designSpecsFor	computer-human_interaction	/wiki/Computer-human_interaction:TOC 
matrix_chain_multiplication	algorithmFor	dynamic_programming	/wiki/Dynamic_programming:TOC 
cultured_neuronal_network	research (relatedTo)	brain-computer_interface	/wiki/Brain-computer_interface:TOC 
php	exampleOf	variable_interpolation	/wiki/Variable_interpolation:TOC 
fixed-odds_betting	typeOf	gambling	/wiki/Gambling:TOC 
learning_object	system (relatedTo)	educational_technology	/wiki/Educational_technology:TOC 
instruction-level_parallelism	types of parallelism(relatedTo)	asynchronous_programming	/wiki/Asynchronous_programming:TOC 
maxam-gilbert_sequencing	methodIn	dna_sequencing	/wiki/DNA_sequencing:TOC 
data_model	subTopicOf	data_modeling	/wiki/Data_modeling:TOC 
evolutionary_algorithm	techniqueIn	genetic_algorithm	/wiki/Genetic_algorithms:TOC 
petersongorensteinzierler_algorithm	algorithmFor	reed%e2%80%93solomon_error_correction	/wiki/Reed%E2%80%93Solomon_error_correction:TOC 
digital_physics	applicationOf	cellular_automaton	/wiki/Cellular_automaton:TOC 
graph_drawing	algorithmFor	graph_algorithm	/wiki/Graph_algorithms:TOC 
mental_model	techniqueIn	conceptual_model	/wiki/Conceptual_model:TOC 
test_statistic	exampleOf	statistical_hypothesis_testing	/wiki/Statistical_hypothesis_testing:TOC 
large_cardinal_property	subAreaOf	axiomatic_set_theory	/wiki/Axiomatic_set_theory:TOC 
biological_neuron_model	exampleOf	models_of_neural_computation	/wiki/Models_of_neural_computation:TOC 
petersongorensteinzierler_algorithm	algorithmFor	reed%e2%80%93solomon_error_correction	/wiki/Reed%E2%80%93Solomon_error_correction:TOC 
proof-of-work_system	applicationOf	cryptographic_hash_function	/wiki/Cryptographic_hash_function:TOC 
advanced_encryption_standard	research (relatedTo)	nsa	/wiki/NSA:TOC 
master_of_engineering_management	subAreaOf	management_engineering	/wiki/Management_engineering:TOC 
psychoneuroimmunology	task (relatedTo)	neurology	/wiki/Neurology:TOC 
preventive_maintenance	system (relatedTo)	configuration_management	/wiki/Configuration_management:TOC 
word_sense_induction	methodIn	word-sense_disambiguation	/wiki/Word-sense_disambiguation:TOC 
cosmic_inflation	applicationOf	anthropic_principle	/wiki/Anthropic_principle:TOC 
constitutional_monarchy	typeOf	democracy	/wiki/Democracy:TOC 
hierarchical_clustering	algorithmFor	cluster_analysis	/wiki/Cluster_analysis:TOC 
formal_semantics_(logic)	system (relatedTo)	formal_language	/wiki/Formal_language:TOC 
confirmation_bias	problemIn	problem-solving	/wiki/Problem-solving:TOC 
email_attachment	typeOf	electronic_mail	/wiki/Electronic_mail:TOC 
homogeneous_distribution	exampleOf	homogeneous_function	/wiki/Homogeneous_function:TOC 
medical_privacy	information types(relatedTo)	information_privacy	/wiki/Information_privacy:TOC 
sense	classification (relatedTo)	sensor	/wiki/Sensor:TOC 
linear_differential_equation	types(relatedTo)	differential_equation	/wiki/Differential_equation:TOC 
swarm_intelligence	classification (relatedTo)	metaheuristic	/wiki/Metaheuristics:TOC 
stoney_units	system (relatedTo)	natural_unit	/wiki/Natural_units:TOC 
canonical_form_(boolean_algebra)	exampleOf	canonical_form	/wiki/Canonical_form:TOC 
data_model	subTopicOf	data_modeling	/wiki/Data_modeling:TOC 
improper_integral	theorem/theory (relatedTo)	integral	/wiki/Integral:TOC 
9p_(protocol)	conceptIn	plan_9_from_bell_lab	/wiki/Plan_9_from_Bell_Labs:TOC 
intrusion_detection_system_evasion_techniques	classification (relatedTo)	intrusion_detection_system	/wiki/Intrusion_detection_system:TOC 
gaussian_elimination	system (relatedTo)	system_of_linear_equation	/wiki/System_of_linear_equations:TOC 
test_statistic	exampleOf	statistical_hypothesis_testing	/wiki/Statistical_hypothesis_testing:TOC 
anti-democratic_thought	theorem/theory (relatedTo)	democracy	/wiki/Democracy:TOC 
eigenfunction	exampleOf	eigenvalues_and_eigenvector	/wiki/Eigenvalues_and_eigenvectors:TOC 
k-means_clustering	algorithmFor	cluster_analysis	/wiki/Cluster_analysis:TOC 
semimodular_lattice	properties (relatedTo)	lattice	/wiki/Lattice_(order):TOC 
surveillance_aircraft	types(relatedTo)	surveillance#data_mining_and_profiling	/wiki/Surveillance#Data_mining_and_profiling:TOC 
ecc_memory	applicationOf	error_detection_and_correction	/wiki/Error_detection_and_correction:TOC 
system_of_polynomial_equations	applicationOf	gr%c3%b6bner_basis	/wiki/Gr%C3%B6bner_basis:TOC 
intersection_type	system (relatedTo)	type_checking	/wiki/Type_checking:TOC 
dependent_type	theorem/theory (relatedTo)	intuitionistic_type_theory	/wiki/Intuitionistic_Type_Theory:TOC 
neural_network	system (relatedTo)	models_of_neural_computation	/wiki/Models_of_neural_computation:TOC 
cuckoo_search	algorithmFor	intelligent_water_drop	/wiki/Intelligent_Water_Drops:TOC 
null-terminated_string	string datatypes(relatedTo)	string	/wiki/String_(computer_science):TOC 
lattice-based_cryptography__ntru_encryption	algorithmFor	post-quantum_cryptography	/wiki/Post-quantum_cryptography:TOC 
fixed-point_combinator	encoding datatypes(relatedTo)	lambda_calculus	/wiki/Lambda_calculus:TOC 
low-power_electronics	designSpecsFor	computer_systems_architecture	/wiki/Computer_systems_architecture:TOC 
playstation_3_cluster	applicationOf	cell_processor	/wiki/Cell_processor:TOC 
cuckoo_search	algorithmFor	intelligent_water_drop	/wiki/Intelligent_Water_Drops:TOC 
information_graphics	applicationOf	knowledge_visualization	/wiki/Knowledge_visualization:TOC 
transfer-based_machine_translation	approachTo	machine_translation	/wiki/Machine_translation:TOC 
kolmogorov_complexity	subAreaOf	computability_theory	/wiki/Computability_theory:TOC 
fifo_(computing_and_electronics)	system (relatedTo)	scheduling	/wiki/Scheduling_(computing):TOC 
google_bomb	methodIn	internet_vigilantism	/wiki/Internet_vigilantism:TOC 
molecular_modeling_on_gpus	methodIn	gpgpu	/wiki/GPGPU:TOC 
field-effect_transistor	types(relatedTo)	transistor	/wiki/Transistor:TOC 
turing_reduction	subAreaOf	computability_theory	/wiki/Computability_theory:TOC 
